edad = float(input())
if edad >=60:
    print("Se vacuno en la primera fase")
elif edad <60 and edad >=45:
    print("Se vacuno en 2 fase")
elif edad <45 and edad >=30:
    print("debe asistir a vacunarse")
else:
    print("porfavor esperar su etapa de vacunacion")

salario = float(input())
if salario <=1000000:
    retencion = 0.02 #2/100
    print(salario - salario*retencion)
elif salario >=2500000:
    retencion = 0.08
    print(salario - salario*retencion)
        